%YAML 1.1
%TAG !u! tag:unity3d.com,2011:
--- !u!1045 &1
EditorBuildSettings:
  m_ObjectHideFlags: 0
  serializedVersion: 2
  m_Scenes:
  - enabled: 1
    path: Assets/Scenes/Gameplay.unity
    guid: cf6c77a6b2d7f4e6298da1b42c4e8266
  m_configObjects: {}
